^C:\DEV\BITBUCKET\SPRINTBURST\EZLIB\DEBUGWINDOW\DEBUGWINDOW.CPP|C:\DEV\BITBUCKET\SPRINTBURST\EZLIB\PHYSICS\ZBULLET_DEBUGDRAW.CPP
C:\DEV\BITBUCKET\SPRINTBURST\SERVER\DEBUG\DEBUGWINDOW.OBJ
^C:\DEV\BITBUCKET\SPRINTBURST\EZLIB\PCH\PCH.CPP
C:\DEV\BITBUCKET\SPRINTBURST\SERVER\DEBUG\SERVER.PCH
C:\DEV\BITBUCKET\SPRINTBURST\SERVER\DEBUG\VC141.PDB
C:\DEV\BITBUCKET\SPRINTBURST\SERVER\DEBUG\VC141.IDB
C:\DEV\BITBUCKET\SPRINTBURST\SERVER\DEBUG\PCH.OBJ
^C:\DEV\BITBUCKET\SPRINTBURST\EZLIB\ANIMATION\ZBONECONTROLLER.CPP|C:\DEV\BITBUCKET\SPRINTBURST\EZLIB\ANIMATION\ZKEYFRAMEANIMATION.CPP|C:\DEV\BITBUCKET\SPRINTBURST\EZLIB\ANIMATION\ZUVANIMATION.CPP|C:\DEV\BITBUCKET\SPRINTBURST\EZLIB\CAMERA\ZCAMERA.CPP|C:\DEV\BITBUCKET\SPRINTBURST\EZLIB\COLLISION\ZCOLLISION.CPP|C:\DEV\BITBUCKET\SPRINTBURST\EZLIB\DEBUGWINDOW\DEBUGWINDOW.CPP|C:\DEV\BITBUCKET\SPRINTBURST\EZLIB\EFFECT\ZEFFECTMANAGER.CPP|C:\DEV\BITBUCKET\SPRINTBURST\EZLIB\FONT\ZFONT.CPP|C:\DEV\BITBUCKET\SPRINTBURST\EZLIB\GRAPHICS\ZBILLBOARD.CPP|C:\DEV\BITBUCKET\SPRINTBURST\EZLIB\GRAPHICS\ZDIRECTXGRAPHICS.CPP|C:\DEV\BITBUCKET\SPRINTBURST\EZLIB\GRAPHICS\ZGAMEMODEL.CPP|C:\DEV\BITBUCKET\SPRINTBURST\EZLIB\GRAPHICS\ZLASER.CPP|C:\DEV\BITBUCKET\SPRINTBURST\EZLIB\GRAPHICS\ZMESH.CPP|C:\DEV\BITBUCKET\SPRINTBURST\EZLIB\GRAPHICS\ZPIXELSHADER.CPP|C:\DEV\BITBUCKET\SPRINTBURST\EZLIB\GRAPHICS\ZPOLYGON.CPP|C:\DEV\BITBUCKET\SPRINTBURST\EZLIB\GRAPHICS\ZPOSTEFFECTS.CPP|C:\DEV\BITBUCKET\SPRINTBURST\EZLIB\GRAPHICS\ZSHADERSET.CPP|C:\DEV\BITBUCKET\SPRINTBURST\EZLIB\GRAPHICS\ZSINGLEMODEL.CPP|C:\DEV\BITBUCKET\SPRINTBURST\EZLIB\GRAPHICS\ZSTATES.CPP|C:\DEV\BITBUCKET\SPRINTBURST\EZLIB\GRAPHICS\ZTEXTURE.CPP|C:\DEV\BITBUCKET\SPRINTBURST\EZLIB\GRAPHICS\ZVERTEXSHADER.CPP|C:\DEV\BITBUCKET\SPRINTBURST\EZLIB\INPUT\ZINPUT.CPP|C:\DEV\BITBUCKET\SPRINTBURST\EZLIB\MAINFRAME\ZMAINFRAME.CPP|C:\DEV\BITBUCKET\SPRINTBURST\EZLIB\MATH\ZMATRIX.CPP|C:\DEV\BITBUCKET\SPRINTBURST\EZLIB\MATH\ZQUAT.CPP|C:\DEV\BITBUCKET\SPRINTBURST\EZLIB\MATH\ZVEC2.CPP|C:\DEV\BITBUCKET\SPRINTBURST\EZLIB\MATH\ZVEC3.CPP|C:\DEV\BITBUCKET\SPRINTBURST\EZLIB\MATH\ZVEC4.CPP|C:\DEV\BITBUCKET\SPRINTBURST\EZLIB\MEMORYALLOCATER\MEMORY.CPP|C:\DEV\BITBUCKET\SPRINTBURST\EZLIB\MEMORYALLOCATER\ZMEMORYALLOCATOR.CPP|C:\DEV\BITBUCKET\SPRINTBURST\EZLIB\MEMORYALLOCATER\ZSMARTPOINTER.CPP|C:\DEV\BITBUCKET\SPRINTBURST\EZLIB\MMD\ZMMDMATERIAL.CPP|C:\DEV\BITBUCKET\SPRINTBURST\EZLIB\MMD\ZPMD.CPP|C:\DEV\BITBUCKET\SPRINTBURST\EZLIB\MMD\ZPMX.CPP|C:\DEV\BITBUCKET\SPRINTBURST\EZLIB\MMD\ZPMX2ZGAMEMODEL.CPP|C:\DEV\BITBUCKET\SPRINTBURST\EZLIB\MMD\ZVMD.CPP|C:\DEV\BITBUCKET\SPRINTBURST\EZLIB\NETWORK\ZCLIENT.CPP|C:\DEV\BITBUCKET\SPRINTBURST\EZLIB\NETWORK\ZSERVER.CPP|C:\DEV\BITBUCKET\SPRINTBURST\EZLIB\PHYSICS\ZBULLETPHYSICSENGINE.CPP|C:\DEV\BITBUCKET\SPRINTBURST\EZLIB\PHYSICS\ZBULLET_DEBUGDRAW.CPP|C:\DEV\BITBUCKET\SPRINTBURST\EZLIB\PHYSICS\ZBULLET_JOINT.CPP|C:\DEV\BITBUCKET\SPRINTBURST\EZLIB\PHYSICS\ZBULLET_RIGIDBODY.CPP|C:\DEV\BITBUCKET\SPRINTBURST\EZLIB\PHYSICS\ZBULLET_SHAPE.CPP|C:\DEV\BITBUCKET\SPRINTBURST\EZLIB\SCENE\ZSCENE.CPP|C:\DEV\BITBUCKET\SPRINTBURST\EZLIB\SOUNDS\ZSOUND.CPP|C:\DEV\BITBUCKET\SPRINTBURST\EZLIB\SUBSYSTEM\ZSUBSYSTEM.CPP|C:\DEV\BITBUCKET\SPRINTBURST\EZLIB\TOOLS\CSV\ZCSV.CPP|C:\DEV\BITBUCKET\SPRINTBURST\EZLIB\TOOLS\XEDLOADER\ZXEDLOADER.CPP|C:\DEV\BITBUCKET\SPRINTBURST\EZLIB\TOOLS\ZRESOURCESTORAGE.CPP|C:\DEV\BITBUCKET\SPRINTBURST\EZLIB\UTILS\TEXTFILEREADER.CPP|C:\DEV\BITBUCKET\SPRINTBURST\EZLIB\UTILS\ZFILE.CPP|C:\DEV\BITBUCKET\SPRINTBURST\EZLIB\UTILS\ZMTRAND.CPP|C:\DEV\BITBUCKET\SPRINTBURST\EZLIB\UTILS\ZPATHUTIL.CPP|C:\DEV\BITBUCKET\SPRINTBURST\EZLIB\UTILS\ZTHREADPOOL.CPP|C:\DEV\BITBUCKET\SPRINTBURST\EZLIB\WINDOW\ZWINDOW.CPP|C:\DEV\BITBUCKET\SPRINTBURST\EZLIB\ZECS\ECS.CPP|C:\DEV\BITBUCKET\SPRINTBURST\EZLIB\ZECS\ECSCOMPONENT.CPP|C:\DEV\BITBUCKET\SPRINTBURST\EZLIB\ZECS\ECSENTITY.CPP|C:\DEV\BITBUCKET\SPRINTBURST\EZLIB\ZECS\ECSLISTENER.CPP|C:\DEV\BITBUCKET\SPRINTBURST\EZLIB\ZECS\ECSSYSTEM.CPP|C:\DEV\BITBUCKET\SPRINTBURST\EZLIB\ZECS\EXAMPLE.CPP|C:\DEV\BITBUCKET\SPRINTBURST\EZLIB\ZHELPER.CPP|C:\DEV\BITBUCKET\SPRINTBURST\LIB\IMGUI\IMGUI.CPP|C:\DEV\BITBUCKET\SPRINTBURST\LIB\IMGUI\IMGUI_DEMO.CPP|C:\DEV\BITBUCKET\SPRINTBURST\LIB\IMGUI\IMGUI_DRAW.CPP|C:\DEV\BITBUCKET\SPRINTBURST\LIB\IMGUI\IMGUI_IMPL_DX11.CPP|C:\DEV\BITBUCKET\SPRINTBURST\LIB\IMGUI\IMGUI_IMPL_WIN32.CPP|C:\DEV\BITBUCKET\SPRINTBURST\LIB\IMGUI\IMGUI_WIDGETS.CPP|C:\DEV\BITBUCKET\SPRINTBURST\LIB\JSON11\JSON11.CPP|C:\DEV\BITBUCKET\SPRINTBURST\SERVER\SRC\MAIN.CPP
C:\DEV\BITBUCKET\SPRINTBURST\SERVER\DEBUG\DEBUGWINDOW.OBJ
C:\DEV\BITBUCKET\SPRINTBURST\SERVER\DEBUG\ZVEC4.OBJ
C:\DEV\BITBUCKET\SPRINTBURST\SERVER\DEBUG\ZPMD.OBJ
C:\DEV\BITBUCKET\SPRINTBURST\SERVER\DEBUG\ZCAMERA.OBJ
C:\DEV\BITBUCKET\SPRINTBURST\SERVER\DEBUG\IMGUI_IMPL_WIN32.OBJ
C:\DEV\BITBUCKET\SPRINTBURST\SERVER\DEBUG\MAIN.OBJ
C:\DEV\BITBUCKET\SPRINTBURST\SERVER\DEBUG\ZBONECONTROLLER.OBJ
C:\DEV\BITBUCKET\SPRINTBURST\SERVER\DEBUG\ZVMD.OBJ
C:\DEV\BITBUCKET\SPRINTBURST\SERVER\DEBUG\ZBULLET_RIGIDBODY.OBJ
C:\DEV\BITBUCKET\SPRINTBURST\SERVER\DEBUG\ZRESOURCESTORAGE.OBJ
C:\DEV\BITBUCKET\SPRINTBURST\SERVER\DEBUG\IMGUI.OBJ
C:\DEV\BITBUCKET\SPRINTBURST\SERVER\DEBUG\ZCOLLISION.OBJ
C:\DEV\BITBUCKET\SPRINTBURST\SERVER\DEBUG\ZSTATES.OBJ
C:\DEV\BITBUCKET\SPRINTBURST\SERVER\DEBUG\ZMEMORYALLOCATOR.OBJ
C:\DEV\BITBUCKET\SPRINTBURST\SERVER\DEBUG\ZPMX2ZGAMEMODEL.OBJ
C:\DEV\BITBUCKET\SPRINTBURST\SERVER\DEBUG\ZMTRAND.OBJ
C:\DEV\BITBUCKET\SPRINTBURST\SERVER\DEBUG\ECS.OBJ
C:\DEV\BITBUCKET\SPRINTBURST\SERVER\DEBUG\ZKEYFRAMEANIMATION.OBJ
C:\DEV\BITBUCKET\SPRINTBURST\SERVER\DEBUG\ZSOUND.OBJ
C:\DEV\BITBUCKET\SPRINTBURST\SERVER\DEBUG\ZPATHUTIL.OBJ
C:\DEV\BITBUCKET\SPRINTBURST\SERVER\DEBUG\ZHELPER.OBJ
C:\DEV\BITBUCKET\SPRINTBURST\SERVER\DEBUG\ZSCENE.OBJ
C:\DEV\BITBUCKET\SPRINTBURST\SERVER\DEBUG\ZGAMEMODEL.OBJ
C:\DEV\BITBUCKET\SPRINTBURST\SERVER\DEBUG\ZVEC2.OBJ
C:\DEV\BITBUCKET\SPRINTBURST\SERVER\DEBUG\ZSMARTPOINTER.OBJ
C:\DEV\BITBUCKET\SPRINTBURST\SERVER\DEBUG\ZCLIENT.OBJ
C:\DEV\BITBUCKET\SPRINTBURST\SERVER\DEBUG\ZXEDLOADER.OBJ
C:\DEV\BITBUCKET\SPRINTBURST\SERVER\DEBUG\ZWINDOW.OBJ
C:\DEV\BITBUCKET\SPRINTBURST\SERVER\DEBUG\ZBILLBOARD.OBJ
C:\DEV\BITBUCKET\SPRINTBURST\SERVER\DEBUG\ZPOLYGON.OBJ
C:\DEV\BITBUCKET\SPRINTBURST\SERVER\DEBUG\ZINPUT.OBJ
C:\DEV\BITBUCKET\SPRINTBURST\SERVER\DEBUG\MEMORY.OBJ
C:\DEV\BITBUCKET\SPRINTBURST\SERVER\DEBUG\ZFILE.OBJ
C:\DEV\BITBUCKET\SPRINTBURST\SERVER\DEBUG\EXAMPLE.OBJ
C:\DEV\BITBUCKET\SPRINTBURST\SERVER\DEBUG\ZLASER.OBJ
C:\DEV\BITBUCKET\SPRINTBURST\SERVER\DEBUG\ZSINGLEMODEL.OBJ
C:\DEV\BITBUCKET\SPRINTBURST\SERVER\DEBUG\ZMATRIX.OBJ
C:\DEV\BITBUCKET\SPRINTBURST\SERVER\DEBUG\ZVEC3.OBJ
C:\DEV\BITBUCKET\SPRINTBURST\SERVER\DEBUG\ZPMX.OBJ
C:\DEV\BITBUCKET\SPRINTBURST\SERVER\DEBUG\IMGUI_DRAW.OBJ
C:\DEV\BITBUCKET\SPRINTBURST\SERVER\DEBUG\ZEFFECTMANAGER.OBJ
C:\DEV\BITBUCKET\SPRINTBURST\SERVER\DEBUG\ECSLISTENER.OBJ
C:\DEV\BITBUCKET\SPRINTBURST\SERVER\DEBUG\ZMAINFRAME.OBJ
C:\DEV\BITBUCKET\SPRINTBURST\SERVER\DEBUG\ZUVANIMATION.OBJ
C:\DEV\BITBUCKET\SPRINTBURST\SERVER\DEBUG\ZSHADERSET.OBJ
C:\DEV\BITBUCKET\SPRINTBURST\SERVER\DEBUG\ZQUAT.OBJ
C:\DEV\BITBUCKET\SPRINTBURST\SERVER\DEBUG\ZMMDMATERIAL.OBJ
C:\DEV\BITBUCKET\SPRINTBURST\SERVER\DEBUG\ZSERVER.OBJ
C:\DEV\BITBUCKET\SPRINTBURST\SERVER\DEBUG\ECSENTITY.OBJ
C:\DEV\BITBUCKET\SPRINTBURST\SERVER\DEBUG\ZTHREADPOOL.OBJ
C:\DEV\BITBUCKET\SPRINTBURST\SERVER\DEBUG\ZPIXELSHADER.OBJ
C:\DEV\BITBUCKET\SPRINTBURST\SERVER\DEBUG\ZTEXTURE.OBJ
C:\DEV\BITBUCKET\SPRINTBURST\SERVER\DEBUG\ZBULLETPHYSICSENGINE.OBJ
C:\DEV\BITBUCKET\SPRINTBURST\SERVER\DEBUG\ZCSV.OBJ
C:\DEV\BITBUCKET\SPRINTBURST\SERVER\DEBUG\ZFONT.OBJ
C:\DEV\BITBUCKET\SPRINTBURST\SERVER\DEBUG\ZDIRECTXGRAPHICS.OBJ
C:\DEV\BITBUCKET\SPRINTBURST\SERVER\DEBUG\ZPOSTEFFECTS.OBJ
C:\DEV\BITBUCKET\SPRINTBURST\SERVER\DEBUG\ZBULLET_DEBUGDRAW.OBJ
C:\DEV\BITBUCKET\SPRINTBURST\SERVER\DEBUG\ZSUBSYSTEM.OBJ
C:\DEV\BITBUCKET\SPRINTBURST\SERVER\DEBUG\ECSSYSTEM.OBJ
C:\DEV\BITBUCKET\SPRINTBURST\SERVER\DEBUG\IMGUI_IMPL_DX11.OBJ
C:\DEV\BITBUCKET\SPRINTBURST\SERVER\DEBUG\IMGUI_WIDGETS.OBJ
C:\DEV\BITBUCKET\SPRINTBURST\SERVER\DEBUG\ZMESH.OBJ
C:\DEV\BITBUCKET\SPRINTBURST\SERVER\DEBUG\ZVERTEXSHADER.OBJ
C:\DEV\BITBUCKET\SPRINTBURST\SERVER\DEBUG\ZBULLET_JOINT.OBJ
C:\DEV\BITBUCKET\SPRINTBURST\SERVER\DEBUG\ZBULLET_SHAPE.OBJ
C:\DEV\BITBUCKET\SPRINTBURST\SERVER\DEBUG\TEXTFILEREADER.OBJ
C:\DEV\BITBUCKET\SPRINTBURST\SERVER\DEBUG\ECSCOMPONENT.OBJ
C:\DEV\BITBUCKET\SPRINTBURST\SERVER\DEBUG\IMGUI_DEMO.OBJ
C:\DEV\BITBUCKET\SPRINTBURST\SERVER\DEBUG\JSON11.OBJ
^C:\DEV\BITBUCKET\SPRINTBURST\EZLIB\EFFECT\ZEFFECTMANAGER.CPP
C:\DEV\BITBUCKET\SPRINTBURST\SERVER\DEBUG\VC141.PDB
^C:\DEV\BITBUCKET\SPRINTBURST\EZLIB\ANIMATION\ZBONECONTROLLER.CPP
C:\DEV\BITBUCKET\SPRINTBURST\SERVER\DEBUG\VC141.PDB
^C:\DEV\BITBUCKET\SPRINTBURST\EZLIB\ANIMATION\ZKEYFRAMEANIMATION.CPP
C:\DEV\BITBUCKET\SPRINTBURST\SERVER\DEBUG\VC141.PDB
^C:\DEV\BITBUCKET\SPRINTBURST\EZLIB\ANIMATION\ZUVANIMATION.CPP
C:\DEV\BITBUCKET\SPRINTBURST\SERVER\DEBUG\VC141.PDB
^C:\DEV\BITBUCKET\SPRINTBURST\EZLIB\COLLISION\ZCOLLISION.CPP
C:\DEV\BITBUCKET\SPRINTBURST\SERVER\DEBUG\VC141.PDB
^C:\DEV\BITBUCKET\SPRINTBURST\EZLIB\DEBUGWINDOW\DEBUGWINDOW.CPP
C:\DEV\BITBUCKET\SPRINTBURST\SERVER\DEBUG\VC141.PDB
^C:\DEV\BITBUCKET\SPRINTBURST\EZLIB\GRAPHICS\ZBILLBOARD.CPP
C:\DEV\BITBUCKET\SPRINTBURST\SERVER\DEBUG\VC141.PDB
^C:\DEV\BITBUCKET\SPRINTBURST\EZLIB\GRAPHICS\ZDIRECTXGRAPHICS.CPP
C:\DEV\BITBUCKET\SPRINTBURST\SERVER\DEBUG\VC141.PDB
^C:\DEV\BITBUCKET\SPRINTBURST\EZLIB\GRAPHICS\ZGAMEMODEL.CPP
C:\DEV\BITBUCKET\SPRINTBURST\SERVER\DEBUG\VC141.PDB
^C:\DEV\BITBUCKET\SPRINTBURST\EZLIB\GRAPHICS\ZLASER.CPP
C:\DEV\BITBUCKET\SPRINTBURST\SERVER\DEBUG\VC141.PDB
^C:\DEV\BITBUCKET\SPRINTBURST\EZLIB\GRAPHICS\ZMESH.CPP
C:\DEV\BITBUCKET\SPRINTBURST\SERVER\DEBUG\VC141.PDB
^C:\DEV\BITBUCKET\SPRINTBURST\EZLIB\GRAPHICS\ZPIXELSHADER.CPP
C:\DEV\BITBUCKET\SPRINTBURST\SERVER\DEBUG\VC141.PDB
^C:\DEV\BITBUCKET\SPRINTBURST\EZLIB\GRAPHICS\ZPOLYGON.CPP
C:\DEV\BITBUCKET\SPRINTBURST\SERVER\DEBUG\VC141.PDB
^C:\DEV\BITBUCKET\SPRINTBURST\EZLIB\GRAPHICS\ZPOSTEFFECTS.CPP
C:\DEV\BITBUCKET\SPRINTBURST\SERVER\DEBUG\VC141.PDB
^C:\DEV\BITBUCKET\SPRINTBURST\EZLIB\GRAPHICS\ZSHADERSET.CPP
C:\DEV\BITBUCKET\SPRINTBURST\SERVER\DEBUG\VC141.PDB
^C:\DEV\BITBUCKET\SPRINTBURST\EZLIB\GRAPHICS\ZSINGLEMODEL.CPP
C:\DEV\BITBUCKET\SPRINTBURST\SERVER\DEBUG\VC141.PDB
^C:\DEV\BITBUCKET\SPRINTBURST\EZLIB\GRAPHICS\ZSTATES.CPP
C:\DEV\BITBUCKET\SPRINTBURST\SERVER\DEBUG\VC141.PDB
^C:\DEV\BITBUCKET\SPRINTBURST\EZLIB\GRAPHICS\ZTEXTURE.CPP
C:\DEV\BITBUCKET\SPRINTBURST\SERVER\DEBUG\VC141.PDB
^C:\DEV\BITBUCKET\SPRINTBURST\EZLIB\GRAPHICS\ZVERTEXSHADER.CPP
C:\DEV\BITBUCKET\SPRINTBURST\SERVER\DEBUG\VC141.PDB
^C:\DEV\BITBUCKET\SPRINTBURST\EZLIB\INPUT\ZINPUT.CPP
C:\DEV\BITBUCKET\SPRINTBURST\SERVER\DEBUG\VC141.PDB
^C:\DEV\BITBUCKET\SPRINTBURST\EZLIB\MATH\ZMATRIX.CPP
C:\DEV\BITBUCKET\SPRINTBURST\SERVER\DEBUG\VC141.PDB
^C:\DEV\BITBUCKET\SPRINTBURST\EZLIB\MATH\ZQUAT.CPP
C:\DEV\BITBUCKET\SPRINTBURST\SERVER\DEBUG\VC141.PDB
^C:\DEV\BITBUCKET\SPRINTBURST\EZLIB\MATH\ZVEC2.CPP
C:\DEV\BITBUCKET\SPRINTBURST\SERVER\DEBUG\VC141.PDB
^C:\DEV\BITBUCKET\SPRINTBURST\EZLIB\MATH\ZVEC3.CPP
C:\DEV\BITBUCKET\SPRINTBURST\SERVER\DEBUG\VC141.PDB
^C:\DEV\BITBUCKET\SPRINTBURST\EZLIB\MATH\ZVEC4.CPP
C:\DEV\BITBUCKET\SPRINTBURST\SERVER\DEBUG\VC141.PDB
^C:\DEV\BITBUCKET\SPRINTBURST\EZLIB\MEMORYALLOCATER\MEMORY.CPP
C:\DEV\BITBUCKET\SPRINTBURST\SERVER\DEBUG\VC141.PDB
^C:\DEV\BITBUCKET\SPRINTBURST\EZLIB\MEMORYALLOCATER\ZMEMORYALLOCATOR.CPP
C:\DEV\BITBUCKET\SPRINTBURST\SERVER\DEBUG\VC141.PDB
^C:\DEV\BITBUCKET\SPRINTBURST\EZLIB\MEMORYALLOCATER\ZSMARTPOINTER.CPP
C:\DEV\BITBUCKET\SPRINTBURST\SERVER\DEBUG\VC141.PDB
^C:\DEV\BITBUCKET\SPRINTBURST\EZLIB\MMD\ZMMDMATERIAL.CPP
C:\DEV\BITBUCKET\SPRINTBURST\SERVER\DEBUG\VC141.PDB
^C:\DEV\BITBUCKET\SPRINTBURST\EZLIB\MMD\ZPMD.CPP
C:\DEV\BITBUCKET\SPRINTBURST\SERVER\DEBUG\VC141.PDB
^C:\DEV\BITBUCKET\SPRINTBURST\EZLIB\MMD\ZPMX.CPP
C:\DEV\BITBUCKET\SPRINTBURST\SERVER\DEBUG\VC141.PDB
^C:\DEV\BITBUCKET\SPRINTBURST\EZLIB\MMD\ZPMX2ZGAMEMODEL.CPP
C:\DEV\BITBUCKET\SPRINTBURST\SERVER\DEBUG\VC141.PDB
^C:\DEV\BITBUCKET\SPRINTBURST\EZLIB\MMD\ZVMD.CPP
C:\DEV\BITBUCKET\SPRINTBURST\SERVER\DEBUG\VC141.PDB
^C:\DEV\BITBUCKET\SPRINTBURST\EZLIB\NETWORK\ZCLIENT.CPP
C:\DEV\BITBUCKET\SPRINTBURST\SERVER\DEBUG\VC141.PDB
^C:\DEV\BITBUCKET\SPRINTBURST\EZLIB\NETWORK\ZSERVER.CPP
C:\DEV\BITBUCKET\SPRINTBURST\SERVER\DEBUG\VC141.PDB
^C:\DEV\BITBUCKET\SPRINTBURST\EZLIB\PHYSICS\ZBULLETPHYSICSENGINE.CPP
C:\DEV\BITBUCKET\SPRINTBURST\SERVER\DEBUG\VC141.PDB
^C:\DEV\BITBUCKET\SPRINTBURST\EZLIB\PHYSICS\ZBULLET_DEBUGDRAW.CPP
C:\DEV\BITBUCKET\SPRINTBURST\SERVER\DEBUG\VC141.PDB
^C:\DEV\BITBUCKET\SPRINTBURST\EZLIB\PHYSICS\ZBULLET_JOINT.CPP
C:\DEV\BITBUCKET\SPRINTBURST\SERVER\DEBUG\VC141.PDB
^C:\DEV\BITBUCKET\SPRINTBURST\EZLIB\PHYSICS\ZBULLET_RIGIDBODY.CPP
C:\DEV\BITBUCKET\SPRINTBURST\SERVER\DEBUG\VC141.PDB
^C:\DEV\BITBUCKET\SPRINTBURST\EZLIB\PHYSICS\ZBULLET_SHAPE.CPP
C:\DEV\BITBUCKET\SPRINTBURST\SERVER\DEBUG\VC141.PDB
^C:\DEV\BITBUCKET\SPRINTBURST\EZLIB\SOUNDS\ZSOUND.CPP
C:\DEV\BITBUCKET\SPRINTBURST\SERVER\DEBUG\VC141.PDB
^C:\DEV\BITBUCKET\SPRINTBURST\EZLIB\SUBSYSTEM\ZSUBSYSTEM.CPP
C:\DEV\BITBUCKET\SPRINTBURST\SERVER\DEBUG\VC141.PDB
^C:\DEV\BITBUCKET\SPRINTBURST\EZLIB\TOOLS\CSV\ZCSV.CPP
C:\DEV\BITBUCKET\SPRINTBURST\SERVER\DEBUG\VC141.PDB
^C:\DEV\BITBUCKET\SPRINTBURST\EZLIB\TOOLS\XEDLOADER\ZXEDLOADER.CPP
C:\DEV\BITBUCKET\SPRINTBURST\SERVER\DEBUG\VC141.PDB
^C:\DEV\BITBUCKET\SPRINTBURST\EZLIB\TOOLS\ZRESOURCESTORAGE.CPP
C:\DEV\BITBUCKET\SPRINTBURST\SERVER\DEBUG\VC141.PDB
^C:\DEV\BITBUCKET\SPRINTBURST\EZLIB\UTILS\TEXTFILEREADER.CPP
C:\DEV\BITBUCKET\SPRINTBURST\SERVER\DEBUG\VC141.PDB
^C:\DEV\BITBUCKET\SPRINTBURST\EZLIB\UTILS\ZFILE.CPP
C:\DEV\BITBUCKET\SPRINTBURST\SERVER\DEBUG\VC141.PDB
^C:\DEV\BITBUCKET\SPRINTBURST\EZLIB\UTILS\ZMTRAND.CPP
C:\DEV\BITBUCKET\SPRINTBURST\SERVER\DEBUG\VC141.PDB
^C:\DEV\BITBUCKET\SPRINTBURST\EZLIB\UTILS\ZPATHUTIL.CPP
C:\DEV\BITBUCKET\SPRINTBURST\SERVER\DEBUG\VC141.PDB
^C:\DEV\BITBUCKET\SPRINTBURST\EZLIB\CAMERA\ZCAMERA.CPP
C:\DEV\BITBUCKET\SPRINTBURST\SERVER\DEBUG\VC141.PDB
^C:\DEV\BITBUCKET\SPRINTBURST\EZLIB\ZECS\ECS.CPP
C:\DEV\BITBUCKET\SPRINTBURST\SERVER\DEBUG\VC141.PDB
^C:\DEV\BITBUCKET\SPRINTBURST\EZLIB\ZECS\ECSCOMPONENT.CPP
C:\DEV\BITBUCKET\SPRINTBURST\SERVER\DEBUG\VC141.PDB
^C:\DEV\BITBUCKET\SPRINTBURST\EZLIB\ZECS\ECSENTITY.CPP
C:\DEV\BITBUCKET\SPRINTBURST\SERVER\DEBUG\VC141.PDB
^C:\DEV\BITBUCKET\SPRINTBURST\EZLIB\ZECS\ECSLISTENER.CPP
C:\DEV\BITBUCKET\SPRINTBURST\SERVER\DEBUG\VC141.PDB
^C:\DEV\BITBUCKET\SPRINTBURST\EZLIB\ZECS\ECSSYSTEM.CPP
C:\DEV\BITBUCKET\SPRINTBURST\SERVER\DEBUG\VC141.PDB
^C:\DEV\BITBUCKET\SPRINTBURST\EZLIB\ZECS\EXAMPLE.CPP
C:\DEV\BITBUCKET\SPRINTBURST\SERVER\DEBUG\VC141.PDB
^C:\DEV\BITBUCKET\SPRINTBURST\EZLIB\FONT\ZFONT.CPP
C:\DEV\BITBUCKET\SPRINTBURST\SERVER\DEBUG\VC141.PDB
^C:\DEV\BITBUCKET\SPRINTBURST\EZLIB\ZHELPER.CPP
C:\DEV\BITBUCKET\SPRINTBURST\SERVER\DEBUG\VC141.PDB
^C:\DEV\BITBUCKET\SPRINTBURST\EZLIB\MAINFRAME\ZMAINFRAME.CPP
C:\DEV\BITBUCKET\SPRINTBURST\SERVER\DEBUG\VC141.PDB
^C:\DEV\BITBUCKET\SPRINTBURST\LIB\IMGUI\IMGUI.CPP
C:\DEV\BITBUCKET\SPRINTBURST\SERVER\DEBUG\VC141.PDB
^C:\DEV\BITBUCKET\SPRINTBURST\LIB\IMGUI\IMGUI_DEMO.CPP
C:\DEV\BITBUCKET\SPRINTBURST\SERVER\DEBUG\VC141.PDB
^C:\DEV\BITBUCKET\SPRINTBURST\LIB\IMGUI\IMGUI_DRAW.CPP
C:\DEV\BITBUCKET\SPRINTBURST\SERVER\DEBUG\VC141.PDB
^C:\DEV\BITBUCKET\SPRINTBURST\LIB\IMGUI\IMGUI_IMPL_DX11.CPP
C:\DEV\BITBUCKET\SPRINTBURST\SERVER\DEBUG\VC141.PDB
^C:\DEV\BITBUCKET\SPRINTBURST\LIB\IMGUI\IMGUI_IMPL_WIN32.CPP
C:\DEV\BITBUCKET\SPRINTBURST\SERVER\DEBUG\VC141.PDB
^C:\DEV\BITBUCKET\SPRINTBURST\LIB\IMGUI\IMGUI_WIDGETS.CPP
C:\DEV\BITBUCKET\SPRINTBURST\SERVER\DEBUG\VC141.PDB
^C:\DEV\BITBUCKET\SPRINTBURST\LIB\JSON11\JSON11.CPP
C:\DEV\BITBUCKET\SPRINTBURST\SERVER\DEBUG\VC141.PDB
^C:\DEV\BITBUCKET\SPRINTBURST\EZLIB\SCENE\ZSCENE.CPP
C:\DEV\BITBUCKET\SPRINTBURST\SERVER\DEBUG\VC141.PDB
^C:\DEV\BITBUCKET\SPRINTBURST\EZLIB\UTILS\ZTHREADPOOL.CPP
C:\DEV\BITBUCKET\SPRINTBURST\SERVER\DEBUG\VC141.PDB
^C:\DEV\BITBUCKET\SPRINTBURST\EZLIB\WINDOW\ZWINDOW.CPP
C:\DEV\BITBUCKET\SPRINTBURST\SERVER\DEBUG\VC141.PDB
^C:\DEV\BITBUCKET\SPRINTBURST\SERVER\SRC\MAIN.CPP
C:\DEV\BITBUCKET\SPRINTBURST\SERVER\DEBUG\VC141.PDB
